Atividade Integradora
…
  pred_bst <- ifelse(prob_bst >= .75, 
                     "Alto", "Baixo")

Resultados

resultados_bst <- tibble(observado = df_test$satisfacao, 
                         predito = pred_bst,
                         probabilidade = prob_bst)
resultados_bst$predito <- factor(resultados_bst$predito,levels = c("Baixo","Alto") )

resultados_bst

## # A tibble: 29,557 x 3
##    observado predito probabilidade
##    <fct>     <fct>           <dbl>
##  1 Baixo     Baixo          0.109 
##  2 Alto      Alto           0.859 
##  3 Baixo     Baixo          0.0625
##  4 Baixo     Baixo          0.255 
##  5 Baixo     Baixo          0.0638
##  6 Baixo     Baixo          0.0599
##  7 Alto      Baixo          0.336 
##  8 Alto      Alto           0.944 
##  9 Alto      Alto           0.787 
## 10 Alto      Alto           0.820 
## #  with 29,547 more rows
…
resultados

valores preditos

    prob_log <- predict(fit_log, newdata = df_test)
   
    pred_log <- ifelse(prob_log >= .75, "Alto", "Baixo")

resultados_log <- tibble(observado = df_test$satisfacao, 
                         predito = pred_log,
                         probabilidade = prob_log)  
resultados_log$predito <- factor(resultados_log$predito, levels = c("Baixo","Alto"))
resultados_log

## # A tibble: 29,557 x 3
##    observado predito probabilidade
##    <fct>     <fct>           <dbl>
##  1 Baixo     Baixo          -2.04 
##  2 Alto      Alto            1.50 
##  3 Baixo     Baixo          -2.82 
##  4 Baixo     Baixo          -1.17 
##  5 Baixo     Baixo          -2.91 
##  6 Baixo     Baixo          -2.70 
##  7 Alto      Baixo          -0.598
##  8 Alto      Alto            2.87 
##  9 Alto      Alto            1.46 
## 10 Alto      Alto            1.40 
## #  with 29,547 more rows
…
pred_ridge1 <- ifelse(prob_ridge >= .75, 1, 0)
    
      pred_ridge <- ifelse(prob_ridge >= .75, "Alto", "Baixo")

resultados

resultados_ridge <- tibble(observado = df_test$satisfacao, 
                           predito = pred_ridge,
                           probabilidade = prob_ridge)
resultados_ridge$predito <- factor(resultados_ridge$predito, levels = c("Baixo","Alto"))

resultados_ridge

## # A tibble: 29,557 x 3
##    observado predito probabilidade[,"1"]
##    <fct>     <fct>                 <dbl>
##  1 Baixo     Baixo                0.130 
##  2 Alto      Alto                 0.820 
##  3 Baixo     Baixo                0.0697
##  4 Baixo     Baixo                0.260 
##  5 Baixo     Baixo                0.0596
##  6 Baixo     Baixo                0.0692
##  7 Alto      Baixo                0.380 
##  8 Alto      Alto                 0.940 
##  9 Alto      Alto                 0.794 
## 10 Alto      Alto                 0.790 
## #  with 29,547 more rows
…
prob_lasso <- predict(met_lasso, newx = x[-treino,], s = lambda_lasso)
      
pred_lasso <- ifelse(prob_lasso >= .75, "Alto", "Baixo")
pred_lasso1 <- ifelse(prob_lasso >= .75, 1, 0)

resultados

resultados_lasso <- tibble(observado = df_test$satisfacao, 
                           predito = pred_lasso,
                           probabilidade = prob_lasso)
resultados_lasso$predito <- factor(resultados_lasso$predito, levels = c("Baixo","Alto"))

resultados_lasso

## # A tibble: 29,557 x 3
##    observado predito probabilidade[,"1"]
##    <fct>     <fct>                 <dbl>
##  1 Baixo     Baixo                -2.04 
##  2 Alto      Alto                  1.51 
##  3 Baixo     Baixo                -2.77 
##  4 Baixo     Baixo                -1.14 
##  5 Baixo     Baixo                -2.89 
##  6 Baixo     Baixo                -2.71 
##  7 Alto      Baixo                -0.600
##  8 Alto      Alto                  2.86 
##  9 Alto      Alto                  1.45 
## 10 Alto      Alto                  1.41 
## #  with 29,547 more rows
…
resultados

predio

pred_rf <- predict(met_rf , newdata = df_test)

  resultados_rf <- tibble(observado = df_test$satisfacao, 
                           predito = pred_rf)
resultados_rf

## # A tibble: 29,557 x 2
##    observado predito
##    <fct>     <fct>  
##  1 Baixo     Baixo  
##  2 Alto      Alto   
##  3 Baixo     Baixo  
##  4 Baixo     Baixo  
##  5 Baixo     Baixo  
##  6 Baixo     Baixo  
##  7 Alto      Baixo  
##  8 Alto      Alto   
##  9 Alto      Alto   
## 10 Alto      Alto   
## #  with 29,547 more rows
…
5.6) Bagging

met_bagging <- ipred::bagging(satisfacao ~ ., data = df_train, coob = TRUE)

predio

pred_bag <- predict(met_bagging, newdata = df_test)

resultados

  resultados_bag <- tibble(observado = df_test$satisfacao,
                           predito = pred_bag)
resultados_bag

## # A tibble: 29,557 x 2
##    observado predito
##    <fct>     <fct>  
##  1 Baixo     Baixo  
##  2 Alto      Alto   
##  3 Baixo     Baixo  
##  4 Baixo     Baixo  
##  5 Baixo     Baixo  
##  6 Baixo     Baixo  
##  7 Alto      Baixo  
##  8 Alto      Alto   
##  9 Alto      Alto   
## 10 Alto      Alto   
## #  with 29,547 more rows
…
